…
    ## Parsed with column specification:
    ## cols(
    ##   .default = col_double()
    ## )

    ## See spec(...) for full column specifications.

``` r
bw_data
```

    ## # A tibble: 4,342 x 20
    ##    babysex bhead blength   bwt delwt fincome frace gaweeks malform menarche
    ##    <fct>   <dbl>   <dbl> <dbl> <dbl>   <dbl> <fct>   <dbl> <fct>      <dbl>
    ##  1 female     34      51  3629   177      35 white    39.9 absent        13
    ##  2 male       34      48  3062   156      65 black    25.9 absent        14
    ##  3 female     36      50  3345   148      85 white    39.9 absent        12
    ##  4 male       34      52  3062   157      55 white    40   absent        14
    ##  5 female     34      52  3374   156       5 white    41.6 absent        13
    ##  6 male       33      52  3374   129      55 white    40.7 absent        12
    ##  7 female     33      46  2523   126      96 black    40.3 absent        14
    ##  8 female     33      49  2778   140       5 white    37.4 absent        12
    ##  9 male       36      52  3515   146      85 white    40.3 absent        11
    ## 10 male       33      50  3459   169      75 black    40.7 absent        12
    ## # … with 4,332 more rows, and 10 more variables: mheight <dbl>,
    ## #   momage <dbl>, mrace <fct>, parity <dbl>, pnumlbw <dbl>, pnumsga <dbl>,
    ## #   ppbmi <dbl>, ppwt <dbl>, smoken <dbl>, wtgain <dbl>
…
    ## # A tibble: 1 x 11
    ##   r.squared adj.r.squared sigma statistic  p.value    df  logLik    AIC
    ##       <dbl>         <dbl> <dbl>     <dbl>    <dbl> <int>   <dbl>  <dbl>
    ## 1    0.0329        0.0320  504.      36.9 2.37e-30     5 -33176. 66364.
    ## # … with 3 more variables: BIC <dbl>, deviance <dbl>, df.residual <int>

``` r
#add residuals and predictions
modelr::add_residuals(bw_data, fit1)
```

    ## Warning in predict.lm(model, data): prediction from a rank-deficient fit
    ## may be misleading

    ## # A tibble: 4,342 x 21
    ##    babysex bhead blength   bwt delwt fincome frace gaweeks malform menarche
    ##    <fct>   <dbl>   <dbl> <dbl> <dbl>   <dbl> <fct>   <dbl> <fct>      <dbl>
    ##  1 female     34      51  3629   177      35 white    39.9 absent        13
    ##  2 male       34      48  3062   156      65 black    25.9 absent        14
    ##  3 female     36      50  3345   148      85 white    39.9 absent        12
    ##  4 male       34      52  3062   157      55 white    40   absent        14
    ##  5 female     34      52  3374   156       5 white    41.6 absent        13
    ##  6 male       33      52  3374   129      55 white    40.7 absent        12
    ##  7 female     33      46  2523   126      96 black    40.3 absent        14
    ##  8 female     33      49  2778   140       5 white    37.4 absent        12
    ##  9 male       36      52  3515   146      85 white    40.3 absent        11
    ## 10 male       33      50  3459   169      75 black    40.7 absent        12
    ## # … with 4,332 more rows, and 11 more variables: mheight <dbl>,
    ## #   momage <dbl>, mrace <fct>, parity <dbl>, pnumlbw <dbl>, pnumsga <dbl>,
    ## #   ppbmi <dbl>, ppwt <dbl>, smoken <dbl>, wtgain <dbl>, resid <dbl>

``` r
modelr::add_predictions(bw_data, fit1)
```

    ## Warning in predict.lm(model, data): prediction from a rank-deficient fit
    ## may be misleading

    ## # A tibble: 4,342 x 21
    ##    babysex bhead blength   bwt delwt fincome frace gaweeks malform menarche
    ##    <fct>   <dbl>   <dbl> <dbl> <dbl>   <dbl> <fct>   <dbl> <fct>      <dbl>
    ##  1 female     34      51  3629   177      35 white    39.9 absent        13
    ##  2 male       34      48  3062   156      65 black    25.9 absent        14
    ##  3 female     36      50  3345   148      85 white    39.9 absent        12
    ##  4 male       34      52  3062   157      55 white    40   absent        14
    ##  5 female     34      52  3374   156       5 white    41.6 absent        13
    ##  6 male       33      52  3374   129      55 white    40.7 absent        12
    ##  7 female     33      46  2523   126      96 black    40.3 absent        14
    ##  8 female     33      49  2778   140       5 white    37.4 absent        12
    ##  9 male       36      52  3515   146      85 white    40.3 absent        11
    ## 10 male       33      50  3459   169      75 black    40.7 absent        12
    ## # … with 4,332 more rows, and 11 more variables: mheight <dbl>,
    ## #   momage <dbl>, mrace <fct>, parity <dbl>, pnumlbw <dbl>, pnumsga <dbl>,
    ## #   ppbmi <dbl>, ppwt <dbl>, smoken <dbl>, wtgain <dbl>, pred <dbl>
…
    ## # A tibble: 1 x 11
    ##   r.squared adj.r.squared sigma statistic p.value    df  logLik    AIC
    ##       <dbl>         <dbl> <dbl>     <dbl>   <dbl> <int>   <dbl>  <dbl>
    ## 1     0.577         0.577  333.     2958.       0     3 -31381. 62771.
    ## # … with 3 more variables: BIC <dbl>, deviance <dbl>, df.residual <int>

``` r
#add residuals and predictions
modelr::add_residuals(bw_data, fit2)
```

    ## # A tibble: 4,342 x 21
    ##    babysex bhead blength   bwt delwt fincome frace gaweeks malform menarche
    ##    <fct>   <dbl>   <dbl> <dbl> <dbl>   <dbl> <fct>   <dbl> <fct>      <dbl>
    ##  1 female     34      51  3629   177      35 white    39.9 absent        13
    ##  2 male       34      48  3062   156      65 black    25.9 absent        14
    ##  3 female     36      50  3345   148      85 white    39.9 absent        12
    ##  4 male       34      52  3062   157      55 white    40   absent        14
    ##  5 female     34      52  3374   156       5 white    41.6 absent        13
    ##  6 male       33      52  3374   129      55 white    40.7 absent        12
    ##  7 female     33      46  2523   126      96 black    40.3 absent        14
    ##  8 female     33      49  2778   140       5 white    37.4 absent        12
    ##  9 male       36      52  3515   146      85 white    40.3 absent        11
    ## 10 male       33      50  3459   169      75 black    40.7 absent        12
    ## # … with 4,332 more rows, and 11 more variables: mheight <dbl>,
    ## #   momage <dbl>, mrace <fct>, parity <dbl>, pnumlbw <dbl>, pnumsga <dbl>,
    ## #   ppbmi <dbl>, ppwt <dbl>, smoken <dbl>, wtgain <dbl>, resid <dbl>

``` r
modelr::add_predictions(bw_data, fit2)
```

    ## # A tibble: 4,342 x 21
    ##    babysex bhead blength   bwt delwt fincome frace gaweeks malform menarche
    ##    <fct>   <dbl>   <dbl> <dbl> <dbl>   <dbl> <fct>   <dbl> <fct>      <dbl>
    ##  1 female     34      51  3629   177      35 white    39.9 absent        13
    ##  2 male       34      48  3062   156      65 black    25.9 absent        14
    ##  3 female     36      50  3345   148      85 white    39.9 absent        12
    ##  4 male       34      52  3062   157      55 white    40   absent        14
    ##  5 female     34      52  3374   156       5 white    41.6 absent        13
    ##  6 male       33      52  3374   129      55 white    40.7 absent        12
    ##  7 female     33      46  2523   126      96 black    40.3 absent        14
    ##  8 female     33      49  2778   140       5 white    37.4 absent        12
    ##  9 male       36      52  3515   146      85 white    40.3 absent        11
    ## 10 male       33      50  3459   169      75 black    40.7 absent        12
    ## # … with 4,332 more rows, and 11 more variables: mheight <dbl>,
    ## #   momage <dbl>, mrace <fct>, parity <dbl>, pnumlbw <dbl>, pnumsga <dbl>,
    ## #   ppbmi <dbl>, ppwt <dbl>, smoken <dbl>, wtgain <dbl>, pred <dbl>
…
